{
	"restaurants": [{
		"name": "De Amsterdamsche Tram",
		"status": "open",
		"sortingValues": {
			"bestMatch": 304.0,
			"newest": 131.0,
			"ratingAverage": 0.0,
			"distance": 2792,
			"popularity": 0.0,
			"averageProductPrice": 892,
			"deliveryCosts": 0,
			"minCost": 0
		}
	}, {
		"name": "Lale Restaurant & Snackbar",
		"status": "order ahead",
		"sortingValues": {
			"bestMatch": 305.0,
			"newest": 73.0,
			"ratingAverage": 0.0,
			"distance": 2880,
			"popularity": 0.0,
			"averageProductPrice": 838,
			"deliveryCosts": 0,
			"minCost": 0
		}
	}, {
		"name": "Lunchpakketdienst",
		"status": "open",
		"sortingValues": {
			"bestMatch": 306.0,
			"newest": 259.0,
			"ratingAverage": 3.5,
			"distance": 14201,
			"popularity": 0.0,
			"averageProductPrice": 4465,
			"deliveryCosts": 500,
			"minCost": 5000
		}
    }, {
        "name": "Daily Sushi",
        "status": "closed",
        "sortingValues": {
            "bestMatch": 9.0,
            "newest": 221.0,
            "ratingAverage": 4.0,
            "distance": 1911,
            "popularity": 6.0,
            "averageProductPrice": 1327,
            "deliveryCosts": 200,
            "minCost": 1000
        }
    }, {
        "name": "Sushi One",
        "status": "open",
        "sortingValues": {
            "bestMatch": 3.0,
            "newest": 238.0,
            "ratingAverage": 4.0,
            "distance": 1618,
            "popularity": 23.0,
            "averageProductPrice": 1285,
            "deliveryCosts": 0,
            "minCost": 1200
        }
    }]
}
